<?xml version="1.0" encoding="UTF-8"?>
<svg width="17px" height="24px" viewBox="0 0 17 24" version="1.1" xmlns="http://www.w3.org/2000/svg" xmlns:xlink="http://www.w3.org/1999/xlink">
    <!-- Generator: sketchtool 53.2 (72643) - https://sketchapp.com -->
    <title>3E482AC2-C95D-4F37-BBF4-E8EF0A1696CC</title>
    <desc>Created with sketchtool.</desc>
    <g id="RI" stroke="none" stroke-width="1" fill="none" fill-rule="evenodd">
        <g id="RI---Homepage" transform="translate(-1511.000000, -523.000000)" fill="#000000">
            <g id="Botton-dila" transform="translate(1306.000000, 487.000000)">
                <g id="Arrow_down" transform="translate(204.500000, 35.500000)">
                    <path d="M-1.73802452,13.7256993 C-2.3807724,13.7256993 -2.92624872,13.1820451 -2.92624872,12.5114136 C-2.92624872,11.8361066 -2.39426262,11.2971279 -1.73802452,11.2971279 L16.8854004,11.2971279 L12.198382,6.55431159 C11.7297528,6.08010353 11.7297528,5.31126034 12.198382,4.83705227 C12.6670111,4.3628442 13.4268091,4.3628442 13.8954382,4.83705227 L19.1783661,10.1828721 L20.4480973,11.4677192 C20.795854,11.6795763 21.03464,12.0677024 21.03464,12.5114136 C21.0445058,12.8499857 20.9275437,13.1765652 20.6836633,13.4233489 L13.8954382,20.2923862 C13.4268091,20.7665943 12.6670111,20.7665943 12.198382,20.2923862 C11.7297528,19.8181781 11.7297528,19.0493349 12.198382,18.5751269 L16.9907575,13.7256993 L-1.73802452,13.7256993 Z" id="Rectangle-509" transform="translate(9.000000, 12.500000) rotate(-270.000000) translate(-9.000000, -12.500000) "></path>
                </g>
            </g>
        </g>
    </g>
</svg>